<svg width="24" height="27" viewBox="0 0 24 27" fill="none" xmlns="http://www.w3.org/2000/svg">
<path d="M20.3375 14.3815L21.9789 5.95706C22.0974 5.3488 21.7011 4.76957 21.1663 4.76957H7.52806L7.20979 2.95467C7.13049 2.5023 6.78924 2.17743 6.39337 2.17743H2.83333C2.37309 2.17743 2 2.61263 2 3.14948V3.79752C2 4.33438 2.37309 4.76957 2.83333 4.76957H5.25983L7.69899 18.6795C7.11545 19.0709 6.72222 19.8049 6.72222 20.6465C6.72222 21.8991 7.59278 22.9146 8.66667 22.9146C9.74056 22.9146 10.6111 21.8991 10.6111 20.6465C10.6111 20.0116 10.3873 19.4381 10.0269 19.0264H17.3064C16.9461 19.4381 16.7222 20.0116 16.7222 20.6465C16.7222 21.8991 17.5928 22.9146 18.6667 22.9146C19.7406 22.9146 20.6111 21.8991 20.6111 20.6465C20.6111 19.7484 20.1636 18.9724 19.5146 18.6049L19.7062 17.6217C19.8247 17.0134 19.4283 16.4342 18.8936 16.4342H9.57351L9.34625 15.1381H19.5249C19.914 15.1381 20.2513 14.8241 20.3375 14.3815Z" fill="white"/>
</svg>
