<?xml version="1.0" encoding="UTF-8"?>
<svg width="25px" height="24px" viewBox="0 0 25 24" version="1.1" xmlns="http://www.w3.org/2000/svg" xmlns:xlink="http://www.w3.org/1999/xlink">
    <title>4B5AFFCB-49EB-4911-B2E7-940DEEE1FB4A</title>
    <g id="Page-1" stroke="none" stroke-width="1" fill="none" fill-rule="evenodd">
        <g id="Dark-Theme-jenks-inner" transform="translate(-42.000000, -158.000000)" fill="#FFFFFF">
            <g id="tab-bar" transform="translate(0.000000, 142.000000)">
                <g id="tab/active" transform="translate(42.000000, 8.000000)">
                    <g id="icon/24px/network" transform="translate(0.333333, 8.000000)">
                        <path d="M15.6019417,8.11650485 C15.0133838,4.52305825 13.6251988,2 12.0097087,2 C10.3942186,2 9.00603368,4.52305825 8.41747573,8.11650485 L15.6019417,8.11650485 Z M8.12621359,12.0485437 C8.12621359,12.9409891 8.17478258,13.7972542 8.2597783,14.6213592 L15.7596392,14.6213592 C15.8446349,13.7972542 15.8932039,12.9409891 15.8932039,12.0485437 C15.8932039,11.1560983 15.8446349,10.2998331 15.7596392,9.47572816 L8.2597783,9.47572816 C8.17478258,10.2998331 8.12621359,11.1560983 8.12621359,12.0485437 Z M21.2330097,8.11650485 C20.0731228,5.3697411 17.7249601,3.24595469 14.8252427,2.38834951 C15.8147966,3.75566343 16.4961288,5.81472492 16.8530171,8.11650485 L21.2330097,8.11650485 Z M9.19417476,2.38834951 C6.29667911,3.24595469 3.94297116,5.3697411 2.78640777,8.11650485 L7.1691743,8.11650485 C7.52223049,5.81472492 8.20399417,3.75566343 9.19417476,2.38834951 Z M21.6680904,9.47572816 L17.0582524,9.47572816 C17.1426523,10.3199333 17.1908807,11.1842385 17.1908807,12.0485437 C17.1908807,12.9128489 17.1426523,13.7771541 17.0582524,14.6213592 L21.6640714,14.6213592 C21.8851185,13.7972542 22.0097087,12.9409891 22.0097087,12.0485437 C22.0097087,11.1560983 21.8851185,10.2998331 21.6680904,9.47572816 Z M6.82864432,12.0485437 C6.82864432,11.1842385 6.87683368,10.3199333 6.96116505,9.47572816 L2.35506579,9.47572816 C2.13821369,10.2998331 2.00970874,11.1560983 2.00970874,12.0485437 C2.00970874,12.9409891 2.13821369,13.7972542 2.35506579,14.6213592 L6.95714927,14.6213592 C6.87683368,13.7771541 6.82864432,12.9128489 6.82864432,12.0485437 Z M8.41747573,15.8834951 C9.00603368,19.4769417 10.3942186,22 12.0097087,22 C13.6251988,22 15.0133838,19.4769417 15.6019417,15.8834951 L8.41747573,15.8834951 Z M14.8252427,21.6116505 C17.7209045,20.7540453 20.0731228,18.6302589 21.2330097,15.8834951 L16.8530171,15.8834951 C16.4961288,18.1852751 15.8147966,20.2443366 14.8252427,21.6116505 Z M2.78640777,15.8834951 C3.9462947,18.6302589 6.29445742,20.7540453 9.19417476,21.6116505 C8.20462087,20.2443366 7.52328868,18.1852751 7.16640039,15.8834951 L2.78640777,15.8834951 Z" id="globe"></path>
                    </g>
                </g>
            </g>
        </g>
    </g>
</svg>