<?xml version="1.0" encoding="UTF-8"?>
<svg width="204px" height="47px" viewBox="0 0 204 47" version="1.1" xmlns="http://www.w3.org/2000/svg" xmlns:xlink="http://www.w3.org/1999/xlink">
    <title>kc_control_tower_logo</title>
    <defs>
        <filter id="filter-1">
            <feColorMatrix in="SourceGraphic" type="matrix" values="0 0 0 0 1.000000 0 0 0 0 1.000000 0 0 0 0 1.000000 0 0 0 1.000000 0"></feColorMatrix>
        </filter>
        <filter id="filter-2">
            <feColorMatrix in="SourceGraphic" type="matrix" values="0 0 0 0 1.000000 0 0 0 0 1.000000 0 0 0 0 1.000000 0 0 0 1.000000 0"></feColorMatrix>
        </filter>
    </defs>
    <g id="Symbols" stroke="none" stroke-width="1" fill="none" fill-rule="evenodd">
        <g id="titlebar" transform="translate(-40.000000, -8.000000)">
            <g id="Group" transform="translate(40.000000, 8.000000)">
                <g id="Group" transform="translate(55.000000, 8.000000)">
                    <g filter="url(#filter-1)">
                        <g transform="translate(0.000000, 14.000000)">
                            <path d="M8.54142857,17.5328571 C6.10285714,17.5328571 4.08,16.7271429 2.48142857,15.1114286 C0.882857143,13.4957143 0.0814285714,11.4857143 0.0814285714,9.07714286 C0.0814285714,6.66857143 0.882857143,4.65428571 2.48142857,3.04285714 C4.08,1.42714286 6.09857143,0.621428571 8.54142857,0.621428571 C10.0071429,0.621428571 11.37,0.968571429 12.6214286,1.66285714 C13.8728571,2.35714286 14.8542857,3.29142857 15.5614286,4.46571429 L11.97,6.52714286 C11.6614286,5.95714286 11.2028571,5.50285714 10.59,5.17285714 C9.98142857,4.84285714 9.29571429,4.67571429 8.54142857,4.67571429 C7.24285714,4.67571429 6.19714286,5.08285714 5.40428571,5.89285714 C4.60714286,6.70285714 4.21285714,7.76571429 4.21285714,9.07714286 C4.21285714,10.3885714 4.61142857,11.4514286 5.40428571,12.2614286 C6.20142857,13.0714286 7.24714286,13.4785714 8.54142857,13.4785714 C9.3,13.4785714 9.98142857,13.3114286 10.59,12.9814286 C11.1985714,12.6514286 11.6614286,12.1885714 11.97,11.6014286 L15.5614286,13.6885714 C14.85,14.88 13.8728571,15.8142857 12.63,16.5042857 C11.3914286,17.1857143 10.0242857,17.5328571 8.54142857,17.5328571 Z" id="Path" fill="#000000" fill-rule="nonzero"></path>
                            <path d="M22.7228571,17.5071429 C21.0085714,17.5071429 19.5471429,16.9157143 18.3428571,15.7328571 C17.1385714,14.55 16.5342857,13.1014286 16.5342857,11.3871429 C16.5342857,9.67285714 17.1385714,8.22428571 18.3428571,7.04142857 C19.5471429,5.85857143 21.0085714,5.26714286 22.7228571,5.26714286 C24.4542857,5.26714286 25.9157143,5.85857143 27.1157143,7.04142857 C28.3114286,8.22428571 28.9114286,9.67285714 28.9114286,11.3871429 C28.9114286,13.1014286 28.3114286,14.55 27.1157143,15.7328571 C25.9157143,16.9157143 24.4542857,17.5071429 22.7228571,17.5071429 Z M22.7228571,13.8 C23.4042857,13.8 23.9614286,13.5771429 24.4028571,13.1271429 C24.8442857,12.6814286 25.0628571,12.0985714 25.0628571,11.3914286 C25.0628571,10.68 24.8442857,10.1014286 24.4028571,9.65571429 C23.9614286,9.20571429 23.4042857,8.98285714 22.7228571,8.98285714 C22.0585714,8.98285714 21.5057143,9.20571429 21.0685714,9.65571429 C20.6271429,10.1057143 20.4085714,10.6842857 20.4085714,11.3914286 C20.4085714,12.1028571 20.6271429,12.6814286 21.0685714,13.1271429 C21.5057143,13.5771429 22.0585714,13.8 22.7228571,13.8 Z" id="Shape" fill="#000000" fill-rule="nonzero"></path>
                            <path d="M37.6671429,5.27571429 C38.9185714,5.27571429 39.9428571,5.70428571 40.7357143,6.56142857 C41.5328571,7.41857143 41.9271429,8.64857143 41.9271429,10.2557143 L41.9271429,17.1814286 L38.0828571,17.1814286 L38.0828571,10.74 C38.0828571,10.1357143 37.9242857,9.68142857 37.6071429,9.37285714 C37.29,9.06428571 36.87,8.91 36.3428571,8.91 C35.7385714,8.91 35.2714286,9.09 34.9414286,9.45428571 C34.6071429,9.81857143 34.4442857,10.3371429 34.4442857,11.0185714 L34.4442857,17.1814286 L30.6,17.1814286 L30.6,5.59714286 L34.4442857,5.59714286 L34.4442857,6.75428571 C35.1428571,5.76857143 36.2142857,5.27571429 37.6671429,5.27571429 Z" id="Path" fill="#000000" fill-rule="nonzero"></path>
                            <path d="M51.1971429,9.28285714 L48.7885714,9.28285714 L48.7885714,12.6428571 C48.7885714,13.1528571 48.9728571,13.47 49.3457143,13.5942857 C49.7185714,13.7185714 50.3357143,13.7571429 51.2014286,13.71 L51.2014286,17.1857143 C48.9,17.4642857 47.2842857,17.25 46.3457143,16.5471429 C45.4114286,15.8442857 44.9442857,14.5757143 44.9442857,12.7371429 L44.9442857,9.28285714 L43.2085714,9.28285714 L43.2085714,5.59714286 L44.9442857,5.59714286 L44.9442857,3.51 L48.7885714,2.35285714 L48.7885714,5.59714286 L51.1971429,5.59714286 L51.1971429,9.28285714 L51.1971429,9.28285714 Z" id="Path" fill="#000000" fill-rule="nonzero"></path>
                            <path d="M56.9871429,7.75285714 C57.2014286,6.99428571 57.6342857,6.40714286 58.2857143,5.99142857 C58.9328571,5.57571429 59.6614286,5.36571429 60.4628571,5.36571429 L60.4628571,9.63 C59.5842857,9.49285714 58.7828571,9.65142857 58.0628571,10.1185714 C57.3428571,10.5814286 56.9871429,11.34 56.9871429,12.39 L56.9871429,17.1857143 L53.1428571,17.1857143 L53.1428571,5.60142857 L56.9871429,5.60142857 L56.9871429,7.75285714 Z" id="Path" fill="#000000" fill-rule="nonzero"></path>
                            <path d="M67.2514286,17.5071429 C65.5371429,17.5071429 64.0757143,16.9157143 62.8714286,15.7328571 C61.6671429,14.55 61.0628571,13.1014286 61.0628571,11.3871429 C61.0628571,9.67285714 61.6671429,8.22428571 62.8714286,7.04142857 C64.0757143,5.85857143 65.5371429,5.26714286 67.2514286,5.26714286 C68.9828571,5.26714286 70.4442857,5.85857143 71.6442857,7.04142857 C72.84,8.22428571 73.44,9.67285714 73.44,11.3871429 C73.44,13.1014286 72.84,14.55 71.6442857,15.7328571 C70.4442857,16.9157143 68.9828571,17.5071429 67.2514286,17.5071429 Z M67.2514286,13.8 C67.9328571,13.8 68.49,13.5771429 68.9314286,13.1271429 C69.3728571,12.6814286 69.5914286,12.0985714 69.5914286,11.3914286 C69.5914286,10.68 69.3728571,10.1014286 68.9314286,9.65571429 C68.49,9.20571429 67.9328571,8.98285714 67.2514286,8.98285714 C66.5871429,8.98285714 66.0342857,9.20571429 65.5971429,9.65571429 C65.1557143,10.1057143 64.9371429,10.6842857 64.9371429,11.3914286 C64.9371429,12.1028571 65.1557143,12.6814286 65.5971429,13.1271429 C66.0385714,13.5771429 66.5871429,13.8 67.2514286,13.8 Z" id="Shape" fill="#000000" fill-rule="nonzero"></path>
                            <polygon id="Path" fill="#000000" fill-rule="nonzero" points="75.1285714 17.1814286 75.1285714 0.27 78.9728571 0.27 78.9728571 17.1814286"></polygon>
                            <polygon id="Path" fill="#000000" fill-rule="nonzero" points="97.7442857 0.964285714 97.7442857 4.97142857 93.7371429 4.97142857 93.7371429 17.1814286 89.5885714 17.1814286 89.5885714 4.97142857 85.5814286 4.97142857 85.5814286 0.964285714"></polygon>
                            <path d="M102.745714,17.5071429 C101.031429,17.5071429 99.57,16.9157143 98.3657143,15.7328571 C97.1614286,14.55 96.5571429,13.1014286 96.5571429,11.3871429 C96.5571429,9.67285714 97.1614286,8.22428571 98.3657143,7.04142857 C99.57,5.85857143 101.031429,5.26714286 102.745714,5.26714286 C104.477143,5.26714286 105.938571,5.85857143 107.138571,7.04142857 C108.334286,8.22428571 108.934286,9.67285714 108.934286,11.3871429 C108.934286,13.1014286 108.334286,14.55 107.138571,15.7328571 C105.938571,16.9157143 104.477143,17.5071429 102.745714,17.5071429 Z M102.745714,13.8 C103.427143,13.8 103.984286,13.5771429 104.425714,13.1271429 C104.867143,12.6814286 105.085714,12.0985714 105.085714,11.3914286 C105.085714,10.68 104.867143,10.1014286 104.425714,9.65571429 C103.984286,9.20571429 103.427143,8.98285714 102.745714,8.98285714 C102.081429,8.98285714 101.528571,9.20571429 101.091429,9.65571429 C100.65,10.1057143 100.431429,10.6842857 100.431429,11.3914286 C100.431429,12.1028571 100.65,12.6814286 101.091429,13.1271429 C101.528571,13.5771429 102.081429,13.8 102.745714,13.8 Z" id="Shape" fill="#000000" fill-rule="nonzero"></path>
                            <polygon id="Path" fill="#000000" fill-rule="nonzero" points="123.18 5.59714286 127.26 5.59714286 123.715714 17.1814286 119.961429 17.1814286 118.294286 11.2971429 116.627143 17.1814286 112.872857 17.1814286 109.328571 5.59714286 113.404286 5.59714286 114.934286 11.8971429 116.67 5.59714286 119.914286 5.59714286 121.65 11.8971429"></polygon>
                            <path d="M131.545714,12.8057143 C131.931429,13.7485714 132.797143,14.22 134.142857,14.22 C134.978571,14.22 135.681429,13.95 136.251429,13.41 L139.032857,15.3557143 C137.888571,16.7914286 136.23,17.5114286 134.052857,17.5114286 C132.09,17.5114286 130.517143,16.9371429 129.338571,15.7842857 C128.155714,14.6357143 127.564286,13.1785714 127.564286,11.4171429 C127.564286,9.67285714 128.142857,8.21142857 129.3,7.03714286 C130.457143,5.86285714 131.931429,5.27571429 133.727143,5.27571429 C135.458571,5.27571429 136.885714,5.85428571 138.012857,7.01142857 C139.14,8.16857143 139.705714,9.62142857 139.705714,11.3657143 C139.705714,11.8757143 139.65,12.3557143 139.542857,12.8014286 L131.545714,12.8014286 L131.545714,12.8057143 Z M131.498571,10.14 L135.947143,10.14 C135.638571,9.06 134.914286,8.52 133.77,8.52 C132.578571,8.52 131.824286,9.06 131.498571,10.14 Z" id="Shape" fill="#000000" fill-rule="nonzero"></path>
                            <path d="M145.191429,7.75285714 C145.405714,6.99428571 145.838571,6.40714286 146.49,5.99142857 C147.137143,5.57571429 147.865714,5.36571429 148.667143,5.36571429 L148.667143,9.63 C147.788571,9.49285714 146.987143,9.65142857 146.267143,10.1185714 C145.547143,10.5814286 145.191429,11.34 145.191429,12.39 L145.191429,17.1857143 L141.347143,17.1857143 L141.347143,5.60142857 L145.191429,5.60142857 L145.191429,7.75285714 Z" id="Path" fill="#000000" fill-rule="nonzero"></path>
                        </g>
                    </g>
                    <path d="M2.30640109,8.45656486 L2.30640109,4.87960265 L4.77936261,8.45656486 L6.78864385,8.45656486 L4.07280218,4.49320241 L6.67824378,0.728560095 L4.66896254,0.728560095 L2.30640109,4.08472216 L2.30640109,0.728560095 L0.54,0.728560095 L0.54,8.45656486 L2.30640109,8.45656486 Z M9.90744577,8.45656486 L9.90744577,0.728560095 L8.14104468,0.728560095 L8.14104468,8.45656486 L9.90744577,8.45656486 Z M13.6886481,8.45656486 L13.6886481,3.96328209 L15.6868893,7.24216411 L15.8856095,7.24216411 L17.8838507,3.96328209 L17.8838507,8.45656486 L19.6502518,8.45656486 L19.6502518,0.728560095 L17.8838507,0.728560095 L15.7862494,4.16200221 L13.6886481,0.728560095 L11.922247,0.728560095 L11.922247,8.45656486 L13.6886481,8.45656486 Z M24.910815,8.45656486 C25.6173754,8.45656486 26.2098558,8.24680473 26.6882561,7.82728447 C27.1666564,7.40776421 27.4058565,6.86312387 27.4058565,6.19336346 C27.4058565,5.43528299 27.0893764,4.85384264 26.456416,4.44904239 C26.9053762,4.05896215 27.1298564,3.55480184 27.1298564,2.93656146 C27.1298564,2.28152105 26.8961762,1.74976072 26.4288159,1.34128047 C25.9614557,0.932800221 25.3818553,0.728560095 24.6900149,0.728560095 L24.6900149,0.728560095 L21.665053,0.728560095 L21.665053,8.45656486 L24.910815,8.45656486 Z M24.6900149,3.75352196 L23.4314541,3.75352196 L23.4314541,2.38456112 L24.6900149,2.38456112 C24.888735,2.38456112 25.0506551,2.44896115 25.1757752,2.57776123 C25.3008953,2.70656131 25.3634553,2.87032141 25.3634553,3.06904154 C25.3634553,3.26776166 25.3008953,3.43152176 25.1757752,3.56032184 C25.0506551,3.68912192 24.888735,3.75352196 24.6900149,3.75352196 L24.6900149,3.75352196 Z M24.910815,6.80056384 L23.4314541,6.80056384 L23.4314541,5.32120292 L24.910815,5.32120292 C25.1316151,5.32120292 25.3082553,5.38928297 25.4407353,5.52544305 C25.5732154,5.66160313 25.6394555,5.84008324 25.6394555,6.06088338 C25.6394555,6.28168352 25.5732154,6.46016363 25.4407353,6.59632371 C25.3082553,6.73248379 25.1316151,6.80056384 24.910815,6.80056384 L24.910815,6.80056384 Z M33.8366605,8.45656486 L33.8366605,6.75640381 L30.7454586,6.75640381 L30.7454586,5.38744296 L33.5054603,5.38744296 L33.5054603,3.70936193 L30.7454586,3.70936193 L30.7454586,2.42872114 L33.7814605,2.42872114 L33.7814605,0.728560095 L28.9790575,0.728560095 L28.9790575,8.45656486 L33.8366605,8.45656486 Z M37.2866626,8.45656486 L37.2866626,5.91736329 L38.1257032,5.91736329 L39.582984,8.45656486 L41.4818652,8.45656486 L39.8369042,5.61928311 C40.2637845,5.39848297 40.6078647,5.08752278 40.8691448,4.68640253 C41.130425,4.28528229 41.2610651,3.84920202 41.2610651,3.37816173 C41.2610651,2.64216127 41.0034649,2.01656089 40.4882646,1.50136057 C39.9730643,0.986160254 39.3474639,0.728560095 38.6114634,0.728560095 L38.6114634,0.728560095 L35.5202615,0.728560095 L35.5202615,8.45656486 L37.2866626,8.45656486 Z M38.6114634,4.37176234 L37.2866626,4.37176234 L37.2866626,2.38456112 L38.6114634,2.38456112 C38.8543436,2.38456112 39.0622637,2.48024117 39.2352238,2.67160129 C39.4081839,2.86296141 39.494664,3.09848155 39.494664,3.37816173 C39.494664,3.6578419 39.4081839,3.89336204 39.2352238,4.08472216 C39.0622637,4.27608228 38.8543436,4.37176234 38.6114634,4.37176234 L38.6114634,4.37176234 Z M47.5262689,8.45656486 L47.5262689,6.75640381 L44.7662672,6.75640381 L44.7662672,0.728560095 L42.9998662,0.728560095 L42.9998662,8.45656486 L47.5262689,8.45656486 Z M51.6938715,8.45656486 L51.6938715,5.48680303 L54.2882731,0.728560095 L52.2789919,0.728560095 L50.810671,3.70936193 L49.3423501,0.728560095 L47.3330688,0.728560095 L49.9274704,5.48680303 L49.9274704,8.45656486 L51.6938715,8.45656486 Z M59.2838762,5.95048331 L59.2838762,4.36072233 L55.0886736,4.36072233 L55.0886736,5.95048331 L59.2838762,5.95048331 Z M64.9860397,8.61112495 C65.6852401,8.61112495 66.3292405,8.45104485 66.9180409,8.13088465 C67.5068412,7.81072446 67.9668415,7.37464419 68.2980417,6.82264385 L68.2980417,6.82264385 L66.7745208,5.9394433 C66.6126007,6.23384349 66.3715605,6.46568363 66.0514004,6.63496373 C65.7312402,6.80424384 65.3761199,6.88888389 64.9860397,6.88888389 C64.3015593,6.88888389 63.7550789,6.67912376 63.3465987,6.2596035 C62.9381184,5.84008324 62.7338783,5.2844029 62.7338783,4.59256248 C62.7338783,3.90072205 62.9381184,3.34504171 63.3465987,2.92552145 C63.7550789,2.50600119 64.3015593,2.29624106 64.9860397,2.29624106 C65.3761199,2.29624106 65.7294002,2.37904111 66.0458803,2.54464121 C66.3623605,2.71024132 66.6052407,2.94392146 66.7745208,3.24568165 L66.7745208,3.24568165 L68.2980417,2.3624811 C67.9594815,1.81048076 67.4958012,1.37440049 66.9070009,1.0542403 C66.3182005,0.734080099 65.6778801,0.574 64.9860397,0.574 C63.830519,0.574 62.8718784,0.958560237 62.1101179,1.72768071 C61.3483575,2.49680118 60.9674772,3.45176177 60.9674772,4.59256248 C60.9674772,5.73336318 61.3483575,6.68832377 62.1101179,7.45744424 C62.8718784,8.22656471 63.830519,8.61112495 64.9860397,8.61112495 Z M74.3424455,8.45656486 L74.3424455,6.75640381 L71.5824438,6.75640381 L71.5824438,0.728560095 L69.8160427,0.728560095 L69.8160427,8.45656486 L74.3424455,8.45656486 Z M77.2956473,8.45656486 L77.6820475,7.24216411 L80.5524493,7.24216411 L80.9388495,8.45656486 L82.8708507,8.45656486 L80.2433291,0.728560095 L77.9911677,0.728560095 L75.3636461,8.45656486 L77.2956473,8.45656486 Z M80.022529,5.58616309 L78.2119678,5.58616309 L79.1172484,2.74888134 L80.022529,5.58616309 Z M85.9896526,8.45656486 L85.9896526,5.91736329 L86.8286931,5.91736329 L88.285974,8.45656486 L90.1848552,8.45656486 L88.5398942,5.61928311 C88.9667745,5.39848297 89.3108547,5.08752278 89.5721348,4.68640253 C89.833415,4.28528229 89.9640551,3.84920202 89.9640551,3.37816173 C89.9640551,2.64216127 89.7064549,2.01656089 89.1912546,1.50136057 C88.6760543,0.986160254 88.0504539,0.728560095 87.3144534,0.728560095 L87.3144534,0.728560095 L84.2232515,0.728560095 L84.2232515,8.45656486 L85.9896526,8.45656486 Z M87.3144534,4.37176234 L85.9896526,4.37176234 L85.9896526,2.38456112 L87.3144534,2.38456112 C87.5573336,2.38456112 87.7652537,2.48024117 87.9382138,2.67160129 C88.1111739,2.86296141 88.197654,3.09848155 88.197654,3.37816173 C88.197654,3.6578419 88.1111739,3.89336204 87.9382138,4.08472216 C87.7652537,4.27608228 87.5573336,4.37176234 87.3144534,4.37176234 L87.3144534,4.37176234 Z M93.4692572,8.45656486 L93.4692572,4.87960265 L95.9422188,8.45656486 L97.9515,8.45656486 L95.2356583,4.49320241 L97.8410999,0.728560095 L95.8318187,0.728560095 L93.4692572,4.08472216 L93.4692572,0.728560095 L91.7028562,0.728560095 L91.7028562,8.45656486 L93.4692572,8.45656486 Z" id="KIMBERLY-CLARK" fill="#279CFF"></path>
                </g>
                <g filter="url(#filter-2)" id="kc_control_tower_logo_2">
                    <g>
                        <g id="Group" transform="translate(9.698413, 0.000000)" fill="#000000" fill-rule="nonzero">
                            <path d="M16.4873016,46.2539683 C16.0148148,46.2539683 15.6417989,45.8809524 15.6417989,45.4084656 L15.6417989,40.8328042 L8.38042328,40.8328042 L8.38042328,45.4084656 C8.38042328,45.8809524 8.00740741,46.2539683 7.53492063,46.2539683 C7.06243386,46.2539683 6.68941799,45.8809524 6.68941799,45.4084656 L6.68941799,39.9873016 C6.68941799,39.5148148 7.06243386,39.1417989 7.53492063,39.1417989 L16.4873016,39.1417989 C16.9597884,39.1417989 17.3328042,39.5148148 17.3328042,39.9873016 L17.3328042,45.4084656 C17.3328042,45.8809524 16.9597884,46.2539683 16.4873016,46.2539683 Z" id="Path"></path>
                            <rect id="Rectangle" x="5.64497354" y="29.3439153" width="12.7571429" height="2.03915344"></rect>
                            <path d="M23.2015873,18.9740741 L0.820634921,18.9740741 C0.397883598,18.9740741 0.0746031746,18.6507937 0.0746031746,18.2280423 L0.0746031746,14.5227513 C0.0746031746,14.1 0.397883598,13.7767196 0.820634921,13.7767196 L23.2015873,13.7767196 C23.6243386,13.7767196 23.947619,14.1 23.947619,14.5227513 L23.947619,18.2280423 C23.947619,18.6259259 23.6243386,18.9740741 23.2015873,18.9740741 Z M1.56666667,17.4820106 L22.4555556,17.4820106 L22.4555556,15.2687831 L1.56666667,15.2687831 L1.56666667,17.4820106 Z" id="Shape"></path>
                            <path d="M19.6455026,11.0412698 L4.37671958,11.0412698 C4.12804233,11.0412698 3.92910053,11.2402116 3.92910053,11.4888889 L3.92910053,14.4978836 L20.0931217,14.4978836 L20.0931217,11.4888889 C20.0931217,11.2402116 19.8941799,11.0412698 19.6455026,11.0412698 Z" id="Path"></path>
                            <rect id="Rectangle" x="11.2899471" y="6.36613757" width="1.46719577" height="6.21693122"></rect>
                            <path d="M12.0111111,0.149206349 L12.0111111,0.149206349 C11.7126984,0.149206349 11.4640212,0.397883598 11.4640212,0.696296296 L11.4640212,5.81904762 C11.4640212,6.11746032 11.7126984,6.36613757 12.0111111,6.36613757 L12.0111111,6.36613757 C12.3095238,6.36613757 12.5582011,6.11746032 12.5582011,5.81904762 L12.5582011,0.696296296 C12.5582011,0.397883598 12.3095238,0.149206349 12.0111111,0.149206349 Z" id="Path"></path>
                            <path d="M20.0931217,29.8412698 L3.92910053,29.8412698 C3.50634921,29.8412698 3.18306878,29.5179894 3.18306878,29.0952381 L3.18306878,25.5888889 C3.18306878,25.1661376 3.50634921,24.8428571 3.92910053,24.8428571 L20.0931217,24.8428571 C20.515873,24.8428571 20.8391534,25.1661376 20.8391534,25.5888889 L20.8391534,29.0952381 C20.8391534,29.4931217 20.4910053,29.8412698 20.0931217,29.8412698 Z M4.67513228,28.3492063 L19.3470899,28.3492063 L19.3470899,26.3349206 L4.67513228,26.3349206 L4.67513228,28.3492063 Z" id="Shape"></path>
                            <path d="M20.0931217,26.3349206 L3.92910053,26.3349206 C3.63068783,26.3349206 3.35714286,26.1608466 3.23280423,25.8873016 L0.124338624,18.526455 C0.0248677249,18.3026455 0.0497354497,18.0291005 0.198941799,17.8301587 C0.348148148,17.6312169 0.571957672,17.5068783 0.820634921,17.5068783 L23.2015873,17.5068783 C23.4502646,17.5068783 23.6740741,17.6312169 23.8232804,17.8301587 C23.9724868,18.0291005 23.9973545,18.3026455 23.8978836,18.526455 L20.789418,25.8624339 C20.6650794,26.1359788 20.3915344,26.3349206 20.0931217,26.3349206 Z M4.42645503,24.8428571 L19.6206349,24.8428571 L22.0825397,18.9740741 L1.96455026,18.9740741 L4.42645503,24.8428571 Z" id="Shape"></path>
                            <path d="M18.4767196,40.3603175 L5.54550265,40.3603175 C5.17248677,40.3603175 4.84920635,40.0867725 4.7994709,39.6888889 L3.9042328,31.9550265 C3.87936508,31.7560847 3.95396825,31.5322751 4.07830688,31.3830688 C4.22751323,31.2338624 4.42645503,31.1343915 4.62539683,31.1343915 L19.3222222,31.1343915 C19.5460317,31.1343915 19.7449735,31.2338624 19.8693122,31.3830688 C20.0185185,31.5322751 20.068254,31.7560847 20.0433862,31.9550265 L19.1481481,39.6888889 C19.1730159,40.0619048 18.8497354,40.3603175 18.4767196,40.3603175 Z M6.21693122,38.868254 L17.805291,38.868254 L18.526455,32.626455 L5.4957672,32.626455 L6.21693122,38.868254 Z" id="Shape"></path>
                            <circle id="Oval" cx="12.0111111" cy="5.12275132" r="1.79047619"></circle>
                            <polygon id="Rectangle" transform="translate(16.953788, 21.914600) rotate(-80.403922) translate(-16.953788, -21.914600) " points="13.2236572 21.1685744 20.6839183 21.1685744 20.6839183 22.6606266 13.2236572 22.6606266"></polygon>
                            <rect id="Rectangle" x="11.2650794" y="18.2280423" width="1.49206349" height="7.36084656"></rect>
                            <polygon id="Rectangle" transform="translate(7.090676, 21.902485) rotate(-9.596078) translate(-7.090676, -21.902485) " points="6.34465003 18.1723544 7.83670225 18.1723544 7.83670225 25.6326155 6.34465003 25.6326155"></polygon>
                        </g>
                        <path d="M17.2333333,46.8010582 C17.1587302,46.8010582 17.084127,46.8010582 17.0095238,46.7761905 C12.2846561,45.731746 8.00740741,43.0708995 4.94867725,39.315873 C1.84021164,35.4862434 0.124338624,30.6619048 0.124338624,25.7132275 C0.124338624,20.7645503 1.84021164,15.9402116 4.94867725,12.110582 C8.00740741,8.33068783 12.3095238,5.69470899 17.0095238,4.65026455 C17.5566138,4.52592593 18.078836,4.87407407 18.2031746,5.3962963 C18.3275132,5.91851852 17.9793651,6.46560847 17.4571429,6.58994709 C13.1798942,7.53492063 9.27566138,9.94708995 6.49047619,13.378836 C3.68042328,16.8603175 2.11375661,21.237037 2.11375661,25.7132275 C2.11375661,30.189418 3.65555556,34.5910053 6.49047619,38.047619 C9.27566138,41.4793651 13.1550265,43.8915344 17.4571429,44.8365079 C18.0042328,44.9608466 18.3275132,45.4830688 18.2031746,46.0301587 C18.1037037,46.4777778 17.7058201,46.8010582 17.2333333,46.8010582 Z" id="Path" fill="#000000" fill-rule="nonzero"></path>
                        <path d="M26.1857143,46.8010582 C25.7380952,46.8010582 25.3153439,46.4777778 25.215873,46.0301587 C25.0915344,45.4830688 25.4396825,44.9608466 25.9619048,44.8365079 C30.2391534,43.8915344 34.1433862,41.4793651 36.9285714,38.047619 C39.7386243,34.5661376 41.305291,30.189418 41.305291,25.7132275 C41.305291,21.237037 39.7386243,16.8354497 36.9285714,13.378836 C34.1433862,9.94708995 30.2640212,7.53492063 25.9619048,6.58994709 C25.4148148,6.46560847 25.0915344,5.94338624 25.215873,5.3962963 C25.3402116,4.84920635 25.8624339,4.52592593 26.4095238,4.65026455 C31.1343915,5.69470899 35.4116402,8.35555556 38.4703704,12.110582 C41.578836,15.9402116 43.294709,20.7645503 43.294709,25.7132275 C43.294709,30.6619048 41.578836,35.4862434 38.4703704,39.315873 C35.4116402,43.0957672 31.1095238,45.731746 26.4095238,46.7761905 C26.3349206,46.7761905 26.2603175,46.8010582 26.1857143,46.8010582 Z" id="Path" fill="#000000" fill-rule="nonzero"></path>
                    </g>
                </g>
            </g>
        </g>
    </g>
</svg>