<?xml version="1.0" encoding="utf-8"?>
<!-- Generator: Adobe Illustrator 24.2.1, SVG Export Plug-In . SVG Version: 6.00 Build 0)  -->
<svg version="1.1" id="Layer_1" xmlns="http://www.w3.org/2000/svg" xmlns:xlink="http://www.w3.org/1999/xlink" x="0px" y="0px"
	 viewBox="0 0 512 512" style="enable-background:new 0 0 512 512;" xml:space="preserve">
<style type="text/css">
	.st0{fill:#8CA0FF;}
	.st1{fill:#777777;}
	.st2{fill:none;stroke:#666666;stroke-width:4;stroke-miterlimit:10;}
	.st3{opacity:0.5;fill:#9FCDFF;}
	.st4{fill:#FFFFFF;}
	.st5{fill:#ED3161;}
</style>
<path class="st0" d="M231.7,80c-41.7,0-75.5,33.8-75.5,75.5c0,33.7,49.3,95.1,68.2,117.4c3.8,4.5,10.7,4.5,14.5,0
	c18.9-22.3,68.2-83.7,68.2-117.4C307.1,113.8,273.4,80,231.7,80z M231.7,180.7c-13.9,0-25.2-11.3-25.2-25.2
	c0-13.9,11.3-25.2,25.2-25.2s25.2,11.3,25.2,25.2C256.8,169.4,245.6,180.7,231.7,180.7z M71.2,209.4c-7.3,2.9-12.1,10-12.1,17.8v150
	c0,6.8,6.8,11.4,13.1,8.9l82.7-37.6V208.8c-5.3-9.6-9.6-18.9-12.7-27.8L71.2,209.4z M231.7,295.5c-8.4,0-16.4-3.7-21.9-10.2
	c-11.8-13.9-24.3-29.7-35.6-46v109l115,38.3V239.4c-11.3,16.2-23.9,32.1-35.6,46C248.1,291.8,240.1,295.5,231.7,295.5z M391.1,176.6
	l-82.7,37.6v172.5l83.8-33.5c7.3-2.9,12.1-10,12.1-17.8v-150C404.2,178.7,397.4,174,391.1,176.6L391.1,176.6z"/>
<g>
	<path class="st1" d="M455.1,412.6l-25.1-25.1c-1.1-1.1-2.7-1.8-4.3-1.8h-4.1c6.9-8.9,11.1-20,11.1-32.2c0-28.9-23.4-52.3-52.3-52.3
		c-28.9,0-52.3,23.4-52.3,52.3c0,28.9,23.4,52.3,52.3,52.3c12.1,0,23.3-4.1,32.2-11.1v4.1c0,1.6,0.6,3.1,1.8,4.3l25.1,25.1
		c2.4,2.4,6.2,2.4,8.5,0l7.1-7.1C457.5,418.7,457.5,414.9,455.1,412.6z M380.4,385.7c-17.8,0-32.2-14.4-32.2-32.2
		c0-17.8,14.4-32.2,32.2-32.2c17.8,0,32.2,14.4,32.2,32.2C412.6,371.3,398.2,385.7,380.4,385.7z"/>
	<circle class="st2" cx="381.3" cy="352.6" r="32.7"/>
	<circle class="st3" cx="381.3" cy="352.6" r="32.7"/>
</g>
<circle class="st4" cx="231.7" cy="155.5" r="38"/>
<circle class="st5" cx="231.7" cy="155.8" r="34.1"/>
<path class="st4" d="M250.1,141.5c-4.9-4.2-12.2-3.4-16.7,1.2l-1.8,1.8l-1.8-1.8c-4.5-4.6-11.8-5.4-16.7-1.2
	c-5.6,4.8-5.9,13.4-0.9,18.6l17.3,17.9c1.1,1.2,2.9,1.2,4,0l17.3-17.9C256,154.9,255.7,146.3,250.1,141.5L250.1,141.5z"/>
</svg>
