<?xml version="1.0" encoding="UTF-8"?>
<svg width="24px" height="22px" viewBox="0 0 24 22" version="1.1" xmlns="http://www.w3.org/2000/svg" xmlns:xlink="http://www.w3.org/1999/xlink">
    <title>icon/24px/table-view</title>
    <defs>
        <filter id="filter-1">
            <feColorMatrix in="SourceGraphic" type="matrix" values="0 0 0 0 1.000000 0 0 0 0 1.000000 0 0 0 0 1.000000 0 0 0 1.000000 0"></feColorMatrix>
        </filter>
    </defs>
    <g id="Symbols" stroke="none" stroke-width="1" fill="none" fill-rule="evenodd">
        <g id="btn-icon/36px/default" transform="translate(-6.000000, -7.000000)">
            <g id="Group" transform="translate(6.000000, 7.000000)">
                <g filter="url(#filter-1)" id="369-table">
                    <g transform="translate(0.000000, 0.000000)">
                        <path d="M0,0 L0,14.6666667 L21.3333333,14.6666667 L21.3333333,0 L0,0 Z M8,9.33333333 L8,6.66666667 L13.3333333,6.66666667 L13.3333333,9.33333333 L8,9.33333333 Z M13.3333333,10.6666667 L13.3333333,13.3333333 L8,13.3333333 L8,10.6666667 L13.3333333,10.6666667 Z M13.3333333,2.66666667 L13.3333333,5.33333333 L8,5.33333333 L8,2.66666667 L13.3333333,2.66666667 Z M6.66666667,2.66666667 L6.66666667,5.33333333 L1.33333333,5.33333333 L1.33333333,2.66666667 L6.66666667,2.66666667 Z M1.33333333,6.66666667 L6.66666667,6.66666667 L6.66666667,9.33333333 L1.33333333,9.33333333 L1.33333333,6.66666667 Z M14.6666667,6.66666667 L20,6.66666667 L20,9.33333333 L14.6666667,9.33333333 L14.6666667,6.66666667 Z M14.6666667,5.33333333 L14.6666667,2.66666667 L20,2.66666667 L20,5.33333333 L14.6666667,5.33333333 Z M1.33333333,10.6666667 L6.66666667,10.6666667 L6.66666667,13.3333333 L1.33333333,13.3333333 L1.33333333,10.6666667 Z M14.6666667,13.3333333 L14.6666667,10.6666667 L20,10.6666667 L20,13.3333333 L14.6666667,13.3333333 Z" id="Shape" fill="#000000" fill-rule="nonzero"></path>
                    </g>
                </g>
                <g id="icon/36px/filter/active" transform="translate(8.000000, 5.166667)"></g>
                <circle id="Oval" fill="#FFFFFF" cx="16" cy="13.1666667" r="8"></circle>
                <path d="M17.1759202,18.9533346 L17.1759202,14.1007634 L20.6008668,10.6753828 C20.8800188,10.3962308 20.6821746,9.91666667 20.2865767,9.91666667 L11.6949677,9.91666667 C11.3001836,9.91666667 11.1009831,10.3956702 11.3806957,10.6753828 L14.8055518,14.1007634 L14.8055518,17.9166667 C14.8055518,18.0616795 14.8763164,18.1975844 14.9951314,18.280773 L16.4766116,19.3174294 C16.7688748,19.5220371 17.1759202,19.3146805 17.1759202,18.9533346 Z" id="f" fill="#131834"></path>
            </g>
        </g>
    </g>
</svg>