// Jest Snapshot v1, https://goo.gl/fbAQLP

exports[`async actions Reset Markers 1`] = `
Array [
  Object {
    "payload": null,
    "type": "RESET_FAV_UNFAV_MARKING",
  },
]
`;

exports[`async actions Set Fav CUST Services - Success 1`] = `
Array [
  Object {
    "payload": true,
    "type": "FAV_CUSO_LOADING",
  },
  Object {
    "payload": Object {
      "selectionType": "CUST",
      "updatedState": Array [
        Object {
          "customerName": "R & R HEALTHCARE INC",
          "distributionChannel": "80",
          "salesOrg": "2810",
          "selectionType": "CUST",
        },
        Object {
          "customerName": "N CAROLINA MUTUAL WHLSE DRUG",
          "distributionChannel": "80",
          "salesOrg": "2810",
          "selectionType": "CUST",
        },
      ],
    },
    "type": "FAV_CUSO_SUCCESS",
  },
  Object {
    "payload": Object {
      "customerName": "N CAROLINA MUTUAL WHLSE DRUG",
      "distributionChannel": "80",
      "salesOrg": Array [
        "2810",
      ],
      "selectionType": "CUST",
    },
    "type": "ADD_CUSO_SUCCESS",
  },
  Object {
    "payload": false,
    "type": "FAV_CUSO_LOADING",
  },
]
`;

exports[`async actions Set Fav SG Services - Success 1`] = `
Array [
  Object {
    "payload": true,
    "type": "FAV_CUSO_LOADING",
  },
  Object {
    "payload": Object {
      "selectionType": "SALES_OFFICE",
      "updatedState": Array [
        Object {
          "distributionChannel": "80",
          "salesOffice": "CS01",
          "salesOrg": "2810",
          "selectionType": "SALES_OFFICE",
        },
      ],
    },
    "type": "FAV_CUSO_SUCCESS",
  },
  Object {
    "payload": Object {
      "reducerObject": Object {
        "distributionChannel": "80",
        "salesOffice": "CS01",
        "salesOrg": "2810",
        "selectionType": "SALES_OFFICE",
      },
      "shortName": "Z01",
    },
    "type": "REMOVE_SG_SUCCESS",
  },
  Object {
    "payload": false,
    "type": "FAV_CUSO_LOADING",
  },
]
`;

exports[`async actions Set Fav SG Services - Success 2 1`] = `
Array [
  Object {
    "payload": true,
    "type": "FAV_CUSO_LOADING",
  },
  Object {
    "payload": Object {
      "selectionType": "SALES_OFFICE",
      "updatedState": Array [
        Object {
          "distributionChannel": "80",
          "salesGroup": Array [
            "Z01",
          ],
          "salesOffice": "CS01",
          "salesOrg": "2810",
          "selectionType": "SALES_OFFICE",
        },
      ],
    },
    "type": "FAV_CUSO_SUCCESS",
  },
  Object {
    "payload": Object {
      "reducerObject": Object {
        "distributionChannel": "80",
        "salesOffice": "CS01",
        "salesOrg": "2810",
        "selectionType": "SALES_OFFICE",
      },
      "shortName": "Z02",
    },
    "type": "REMOVE_SG_SUCCESS",
  },
  Object {
    "payload": false,
    "type": "FAV_CUSO_LOADING",
  },
]
`;

exports[`async actions Set Fav SO Services - Success 1`] = `
Array [
  Object {
    "payload": true,
    "type": "FAV_CUSO_LOADING",
  },
  Object {
    "payload": Object {
      "selectionType": "SALES_OFFICE",
      "updatedState": Array [
        Object {
          "distributionChannel": "80",
          "salesOffice": "CS01",
          "salesOrg": "2810",
          "selectionType": "SALES_OFFICE",
        },
        Object {
          "distributionChannel": "80",
          "salesOffice": "CS06",
          "salesOrg": "2810",
          "selectionType": "SALES_OFFICE",
        },
      ],
    },
    "type": "FAV_CUSO_SUCCESS",
  },
  Object {
    "payload": Object {
      "distributionChannel": "80",
      "salesOffice": "CS06",
      "salesOrg": "2810",
      "selectionType": "SALES_OFFICE",
    },
    "type": "ADD_CUSO_SUCCESS",
  },
  Object {
    "payload": false,
    "type": "FAV_CUSO_LOADING",
  },
]
`;

exports[`async actions Set Fav SO Services other DC - Success 1`] = `
Array [
  Object {
    "payload": true,
    "type": "FAV_CUSO_LOADING",
  },
  Object {
    "payload": Object {
      "selectionType": "SALES_OFFICE",
      "updatedState": Array [
        Object {
          "distributionChannel": "80",
          "salesOffice": "CS06",
          "salesOrg": "2810",
          "selectionType": "SALES_OFFICE",
        },
      ],
    },
    "type": "FAV_CUSO_SUCCESS",
  },
  Object {
    "payload": Object {
      "distributionChannel": "80",
      "salesOffice": "CS06",
      "salesOrg": "2810",
      "selectionType": "SALES_OFFICE",
    },
    "type": "ADD_CUSO_SUCCESS",
  },
  Object {
    "payload": false,
    "type": "FAV_CUSO_LOADING",
  },
]
`;

exports[`async actions Set Unfav CUST Services - Success 1`] = `
Array [
  Object {
    "payload": true,
    "type": "FAV_CUSO_LOADING",
  },
  Object {
    "payload": Object {
      "selectionType": "CUST",
      "updatedState": Array [],
    },
    "type": "FAV_CUSO_SUCCESS",
  },
  Object {
    "payload": Object {
      "customerName": "N CAROLINA MUTUAL WHLSE DRUG",
      "distributionChannel": "80",
      "salesOrg": Array [
        "2810",
      ],
      "selectionType": "CUST",
    },
    "type": "REMOVE_CUSO_SUCCESS",
  },
  Object {
    "payload": false,
    "type": "FAV_CUSO_LOADING",
  },
]
`;

exports[`async actions Set Unfav SG Services - Success 1`] = `
Array [
  Object {
    "payload": true,
    "type": "FAV_CUSO_LOADING",
  },
  Object {
    "payload": Object {
      "selectionType": "SALES_OFFICE",
      "updatedState": Array [
        Object {
          "distributionChannel": "80",
          "salesGroup": Array [
            "Z01",
          ],
          "salesOffice": "CS01",
          "salesOrg": "2810",
          "selectionType": "SALES_OFFICE",
        },
      ],
    },
    "type": "FAV_CUSO_SUCCESS",
  },
  Object {
    "payload": Object {
      "reducerObject": Object {
        "distributionChannel": "80",
        "salesOffice": "CS01",
        "salesOrg": "2810",
        "selectionType": "SALES_OFFICE",
      },
      "shortName": "Z01",
    },
    "type": "ADD_SG_SUCCESS",
  },
  Object {
    "payload": false,
    "type": "FAV_CUSO_LOADING",
  },
]
`;

exports[`async actions Set Unfav SO Services - Success 1`] = `
Array [
  Object {
    "payload": true,
    "type": "FAV_CUSO_LOADING",
  },
  Object {
    "payload": Object {
      "selectionType": "SALES_OFFICE",
      "updatedState": Array [],
    },
    "type": "FAV_CUSO_SUCCESS",
  },
  Object {
    "payload": Object {
      "distributionChannel": "80",
      "salesOffice": "CS01",
      "salesOrg": "2810",
      "selectionType": "SALES_OFFICE",
    },
    "type": "REMOVE_CUSO_SUCCESS",
  },
  Object {
    "payload": false,
    "type": "FAV_CUSO_LOADING",
  },
]
`;

exports[`async actions Set/Unset FavUnfav CUST Services - Failed 1`] = `
Array [
  Object {
    "payload": true,
    "type": "FAV_CUSO_LOADING",
  },
  Object {
    "payload": false,
    "type": "FAV_CUSO_LOADING",
  },
  Object {
    "payload": Array [],
    "type": "FAV_CUSO_FAILED",
  },
]
`;

exports[`async actions Set/Unset FavUnfav Services Data Failed 1`] = `
Array [
  Object {
    "payload": true,
    "type": "MARK_LOADING",
  },
  Object {
    "payload": true,
    "type": "MARK_LOADING",
  },
  Object {
    "payload": false,
    "type": "MARK_LOADING",
  },
  Object {
    "payload": Object {
      "data": null,
      "status": "failed",
    },
    "type": "MARK_FAV_FAILED",
  },
  Object {
    "payload": false,
    "type": "MARK_LOADING",
  },
  Object {
    "payload": Object {
      "data": undefined,
      "status": "failed",
    },
    "type": "MARK_UNFAV_FAILED",
  },
]
`;

exports[`async actions Set/Unset FavUnfav Services Data Failed 2`] = `
Array [
  Object {
    "payload": true,
    "type": "MARK_LOADING",
  },
  Object {
    "payload": true,
    "type": "MARK_LOADING",
  },
  Object {
    "payload": false,
    "type": "MARK_LOADING",
  },
  Object {
    "payload": Object {
      "data": null,
      "status": "failed",
    },
    "type": "MARK_FAV_FAILED",
  },
  Object {
    "payload": false,
    "type": "MARK_LOADING",
  },
  Object {
    "payload": Object {
      "data": undefined,
      "status": "failed",
    },
    "type": "MARK_UNFAV_FAILED",
  },
]
`;

exports[`async actions Set/Unset FavUnfav Services Data Success 1`] = `
Array [
  Object {
    "payload": true,
    "type": "MARK_LOADING",
  },
  Object {
    "payload": true,
    "type": "MARK_LOADING",
  },
  Object {
    "payload": Object {
      "data": Array [
        Object {
          "alias": "BIL",
          "isFav": false,
          "location": Object {
            "city": "BEECH ISLAND",
            "country": "USA",
            "geoLocation": Object {
              "latitude": 33.4163503,
              "longitude": -81.8986332,
            },
            "id": "2028",
            "name": "Beech Island Mill",
            "postalCode": "29842",
            "state": "SC",
            "street": "246 OLD JACKSON HIGHWAY",
            "timezone": "US/Eastern",
          },
          "plantType": "KCNA Mill",
          "region": "NA",
          "shortName": "Beech Island Mill",
          "siteName": "S_2028_298",
          "siteNameDesc": "Beech Island Global Sales Mill",
          "siteNum": "2028",
          "type": "MILL",
        },
      ],
      "status": "done",
    },
    "type": "MARK_FAV_SUCCESS",
  },
  Object {
    "payload": Object {
      "0": Object {
        "alias": "BIL",
        "isFav": false,
        "location": Object {
          "city": "BEECH ISLAND",
          "country": "USA",
          "geoLocation": Object {
            "latitude": 33.4163503,
            "longitude": -81.8986332,
          },
          "id": "2028",
          "name": "Beech Island Mill",
          "postalCode": "29842",
          "state": "SC",
          "street": "246 OLD JACKSON HIGHWAY",
          "timezone": "US/Eastern",
        },
        "plantType": "KCNA Mill",
        "region": "NA",
        "shortName": "Beech Island Mill",
        "siteName": "S_2028_298",
        "siteNameDesc": "Beech Island Global Sales Mill",
        "siteNum": "2028",
        "type": "MILL",
      },
      "isFav": true,
    },
    "type": "ADD_ITEM_SUCCESS",
  },
  Object {
    "payload": false,
    "type": "MARK_LOADING",
  },
  Object {
    "payload": Object {
      "data": Array [
        Object {
          "alias": "BIL",
          "isFav": false,
          "location": Object {
            "city": "BEECH ISLAND",
            "country": "USA",
            "geoLocation": Object {
              "latitude": 33.4163503,
              "longitude": -81.8986332,
            },
            "id": "2028",
            "name": "Beech Island Mill",
            "postalCode": "29842",
            "state": "SC",
            "street": "246 OLD JACKSON HIGHWAY",
            "timezone": "US/Eastern",
          },
          "plantType": "KCNA Mill",
          "region": "NA",
          "shortName": "Beech Island Mill",
          "siteName": "S_2028_298",
          "siteNameDesc": "Beech Island Global Sales Mill",
          "siteNum": "2028",
          "type": "MILL",
        },
      ],
      "status": "done",
    },
    "type": "MARK_UNFAV_SUCCESS",
  },
  Object {
    "payload": Array [
      Object {
        "alias": "BIL",
        "isFav": false,
        "location": Object {
          "city": "BEECH ISLAND",
          "country": "USA",
          "geoLocation": Object {
            "latitude": 33.4163503,
            "longitude": -81.8986332,
          },
          "id": "2028",
          "name": "Beech Island Mill",
          "postalCode": "29842",
          "state": "SC",
          "street": "246 OLD JACKSON HIGHWAY",
          "timezone": "US/Eastern",
        },
        "plantType": "KCNA Mill",
        "region": "NA",
        "shortName": "Beech Island Mill",
        "siteName": "S_2028_298",
        "siteNameDesc": "Beech Island Global Sales Mill",
        "siteNum": "2028",
        "type": "MILL",
      },
    ],
    "type": "REMOVE_ITEM_SUCCESS",
  },
  Object {
    "payload": false,
    "type": "MARK_LOADING",
  },
]
`;

exports[`async actions Set/Unset FavUnfav Services Data Success 2`] = `
Array [
  Object {
    "payload": true,
    "type": "MARK_LOADING",
  },
  Object {
    "payload": true,
    "type": "MARK_LOADING",
  },
  Object {
    "payload": Object {
      "data": Array [
        Object {
          "alias": "BIL",
          "isFav": false,
          "location": Object {
            "city": "BEECH ISLAND",
            "country": "USA",
            "geoLocation": Object {
              "latitude": 33.4163503,
              "longitude": -81.8986332,
            },
            "id": "2028",
            "name": "Beech Island Mill",
            "postalCode": "29842",
            "state": "SC",
            "street": "246 OLD JACKSON HIGHWAY",
            "timezone": "US/Eastern",
          },
          "plantType": "KCNA Mill",
          "region": "NA",
          "shortName": "Beech Island Mill",
          "siteName": "S_2028_298",
          "siteNameDesc": "Beech Island Global Sales Mill",
          "siteNum": "2028",
          "type": "MILL",
        },
      ],
      "status": "done",
    },
    "type": "MARK_FAV_SUCCESS",
  },
  Object {
    "payload": Object {
      "0": Object {
        "alias": "BIL",
        "isFav": false,
        "location": Object {
          "city": "BEECH ISLAND",
          "country": "USA",
          "geoLocation": Object {
            "latitude": 33.4163503,
            "longitude": -81.8986332,
          },
          "id": "2028",
          "name": "Beech Island Mill",
          "postalCode": "29842",
          "state": "SC",
          "street": "246 OLD JACKSON HIGHWAY",
          "timezone": "US/Eastern",
        },
        "plantType": "KCNA Mill",
        "region": "NA",
        "shortName": "Beech Island Mill",
        "siteName": "S_2028_298",
        "siteNameDesc": "Beech Island Global Sales Mill",
        "siteNum": "2028",
        "type": "MILL",
      },
      "isFav": true,
    },
    "type": "ADD_ITEM_SUCCESS",
  },
  Object {
    "payload": false,
    "type": "MARK_LOADING",
  },
  Object {
    "payload": Object {
      "data": Array [
        Object {
          "alias": "BIL",
          "isFav": false,
          "location": Object {
            "city": "BEECH ISLAND",
            "country": "USA",
            "geoLocation": Object {
              "latitude": 33.4163503,
              "longitude": -81.8986332,
            },
            "id": "2028",
            "name": "Beech Island Mill",
            "postalCode": "29842",
            "state": "SC",
            "street": "246 OLD JACKSON HIGHWAY",
            "timezone": "US/Eastern",
          },
          "plantType": "KCNA Mill",
          "region": "NA",
          "shortName": "Beech Island Mill",
          "siteName": "S_2028_298",
          "siteNameDesc": "Beech Island Global Sales Mill",
          "siteNum": "2028",
          "type": "MILL",
        },
      ],
      "status": "done",
    },
    "type": "MARK_UNFAV_SUCCESS",
  },
  Object {
    "payload": Array [
      Object {
        "alias": "BIL",
        "isFav": false,
        "location": Object {
          "city": "BEECH ISLAND",
          "country": "USA",
          "geoLocation": Object {
            "latitude": 33.4163503,
            "longitude": -81.8986332,
          },
          "id": "2028",
          "name": "Beech Island Mill",
          "postalCode": "29842",
          "state": "SC",
          "street": "246 OLD JACKSON HIGHWAY",
          "timezone": "US/Eastern",
        },
        "plantType": "KCNA Mill",
        "region": "NA",
        "shortName": "Beech Island Mill",
        "siteName": "S_2028_298",
        "siteNameDesc": "Beech Island Global Sales Mill",
        "siteNum": "2028",
        "type": "MILL",
      },
    ],
    "type": "REMOVE_ITEM_SUCCESS",
  },
  Object {
    "payload": false,
    "type": "MARK_LOADING",
  },
]
`;

exports[`async actions setBusinessLocalActions 1`] = `
Array [
  Object {
    "payload": Array [
      "PROFESSIONAL",
    ],
    "type": "SET_BUSINESS_UNIT_LOCAL",
  },
]
`;

exports[`async actions setBusinessService  1`] = `
Array [
  Object {
    "payload": true,
    "type": "ADD_BUSINESS_UNIT_LOADING",
  },
  Object {
    "payload": true,
    "type": "ADD_BUSINESS_UNIT_LOADING",
  },
  Object {
    "payload": true,
    "type": "ADD_BUSINESS_UNIT_LOADING",
  },
  Object {
    "payload": true,
    "type": "ADD_BUSINESS_UNIT_LOADING",
  },
  Object {
    "payload": true,
    "type": "ADD_BUSINESS_UNIT_LOADING",
  },
  Object {
    "payload": Array [
      "ALL",
    ],
    "type": "ADD_BUSINESS_UNIT_SUCCESS",
  },
  Object {
    "payload": Array [
      "ALL",
    ],
    "type": "SET_BUSINESS_UNIT_LOCAL",
  },
  Object {
    "payload": false,
    "type": "ADD_BUSINESS_UNIT_LOADING",
  },
  Object {
    "payload": Array [
      "PROFESSIONAL",
      "CONSUMER",
    ],
    "type": "ADD_BUSINESS_UNIT_SUCCESS",
  },
  Object {
    "payload": Array [
      "CONSUMER",
      "PROFESSIONAL",
    ],
    "type": "SET_BUSINESS_UNIT_LOCAL",
  },
  Object {
    "payload": false,
    "type": "ADD_BUSINESS_UNIT_LOADING",
  },
  Object {
    "payload": Array [
      "CONSUMER",
    ],
    "type": "ADD_BUSINESS_UNIT_SUCCESS",
  },
  Object {
    "payload": Array [
      "CONSUMER",
      "PROFESSIONAL",
    ],
    "type": "SET_BUSINESS_UNIT_LOCAL",
  },
  Object {
    "payload": false,
    "type": "ADD_BUSINESS_UNIT_LOADING",
  },
  Object {
    "payload": Array [
      "CONSUMER",
      "PROFESSIONAL",
    ],
    "type": "ADD_BUSINESS_UNIT_SUCCESS",
  },
  Object {
    "payload": Array [
      "PROFESSIONAL",
    ],
    "type": "SET_BUSINESS_UNIT_LOCAL",
  },
  Object {
    "payload": false,
    "type": "ADD_BUSINESS_UNIT_LOADING",
  },
  Object {
    "payload": Array [
      "PROFESSIONAL",
    ],
    "type": "ADD_BUSINESS_UNIT_SUCCESS",
  },
  Object {
    "payload": Array [
      "PROFESSIONAL",
    ],
    "type": "SET_BUSINESS_UNIT_LOCAL",
  },
  Object {
    "payload": false,
    "type": "ADD_BUSINESS_UNIT_LOADING",
  },
]
`;

exports[`async actions setBusinessService  2`] = `
Array [
  Object {
    "payload": true,
    "type": "ADD_BUSINESS_UNIT_LOADING",
  },
  Object {
    "payload": true,
    "type": "ADD_BUSINESS_UNIT_LOADING",
  },
  Object {
    "payload": true,
    "type": "ADD_BUSINESS_UNIT_LOADING",
  },
  Object {
    "payload": true,
    "type": "ADD_BUSINESS_UNIT_LOADING",
  },
  Object {
    "payload": true,
    "type": "ADD_BUSINESS_UNIT_LOADING",
  },
  Object {
    "payload": Array [
      "ALL",
    ],
    "type": "ADD_BUSINESS_UNIT_SUCCESS",
  },
  Object {
    "payload": Array [
      "ALL",
    ],
    "type": "SET_BUSINESS_UNIT_LOCAL",
  },
  Object {
    "payload": false,
    "type": "ADD_BUSINESS_UNIT_LOADING",
  },
  Object {
    "payload": Array [
      "PROFESSIONAL",
      "CONSUMER",
    ],
    "type": "ADD_BUSINESS_UNIT_SUCCESS",
  },
  Object {
    "payload": Array [
      "CONSUMER",
      "PROFESSIONAL",
    ],
    "type": "SET_BUSINESS_UNIT_LOCAL",
  },
  Object {
    "payload": false,
    "type": "ADD_BUSINESS_UNIT_LOADING",
  },
  Object {
    "payload": Array [
      "CONSUMER",
    ],
    "type": "ADD_BUSINESS_UNIT_SUCCESS",
  },
  Object {
    "payload": Array [
      "CONSUMER",
      "PROFESSIONAL",
    ],
    "type": "SET_BUSINESS_UNIT_LOCAL",
  },
  Object {
    "payload": false,
    "type": "ADD_BUSINESS_UNIT_LOADING",
  },
  Object {
    "payload": Array [
      "CONSUMER",
      "PROFESSIONAL",
    ],
    "type": "ADD_BUSINESS_UNIT_SUCCESS",
  },
  Object {
    "payload": Array [
      "PROFESSIONAL",
    ],
    "type": "SET_BUSINESS_UNIT_LOCAL",
  },
  Object {
    "payload": false,
    "type": "ADD_BUSINESS_UNIT_LOADING",
  },
  Object {
    "payload": Array [
      "PROFESSIONAL",
    ],
    "type": "ADD_BUSINESS_UNIT_SUCCESS",
  },
  Object {
    "payload": Array [
      "PROFESSIONAL",
    ],
    "type": "SET_BUSINESS_UNIT_LOCAL",
  },
  Object {
    "payload": false,
    "type": "ADD_BUSINESS_UNIT_LOADING",
  },
]
`;

exports[`async actions setBusinessService  3`] = `
Array [
  Object {
    "payload": true,
    "type": "ADD_BUSINESS_UNIT_LOADING",
  },
  Object {
    "payload": true,
    "type": "ADD_BUSINESS_UNIT_LOADING",
  },
  Object {
    "payload": true,
    "type": "ADD_BUSINESS_UNIT_LOADING",
  },
  Object {
    "payload": true,
    "type": "ADD_BUSINESS_UNIT_LOADING",
  },
  Object {
    "payload": true,
    "type": "ADD_BUSINESS_UNIT_LOADING",
  },
  Object {
    "payload": Array [
      "ALL",
    ],
    "type": "ADD_BUSINESS_UNIT_SUCCESS",
  },
  Object {
    "payload": Array [
      "ALL",
    ],
    "type": "SET_BUSINESS_UNIT_LOCAL",
  },
  Object {
    "payload": false,
    "type": "ADD_BUSINESS_UNIT_LOADING",
  },
  Object {
    "payload": Array [
      "PROFESSIONAL",
      "CONSUMER",
    ],
    "type": "ADD_BUSINESS_UNIT_SUCCESS",
  },
  Object {
    "payload": Array [
      "CONSUMER",
      "PROFESSIONAL",
    ],
    "type": "SET_BUSINESS_UNIT_LOCAL",
  },
  Object {
    "payload": false,
    "type": "ADD_BUSINESS_UNIT_LOADING",
  },
  Object {
    "payload": Array [
      "CONSUMER",
    ],
    "type": "ADD_BUSINESS_UNIT_SUCCESS",
  },
  Object {
    "payload": Array [
      "CONSUMER",
      "PROFESSIONAL",
    ],
    "type": "SET_BUSINESS_UNIT_LOCAL",
  },
  Object {
    "payload": false,
    "type": "ADD_BUSINESS_UNIT_LOADING",
  },
  Object {
    "payload": Array [
      "CONSUMER",
      "PROFESSIONAL",
    ],
    "type": "ADD_BUSINESS_UNIT_SUCCESS",
  },
  Object {
    "payload": Array [
      "PROFESSIONAL",
    ],
    "type": "SET_BUSINESS_UNIT_LOCAL",
  },
  Object {
    "payload": false,
    "type": "ADD_BUSINESS_UNIT_LOADING",
  },
  Object {
    "payload": Array [
      "PROFESSIONAL",
    ],
    "type": "ADD_BUSINESS_UNIT_SUCCESS",
  },
  Object {
    "payload": Array [
      "PROFESSIONAL",
    ],
    "type": "SET_BUSINESS_UNIT_LOCAL",
  },
  Object {
    "payload": false,
    "type": "ADD_BUSINESS_UNIT_LOADING",
  },
]
`;

exports[`async actions setBusinessService  4`] = `
Array [
  Object {
    "payload": true,
    "type": "ADD_BUSINESS_UNIT_LOADING",
  },
  Object {
    "payload": true,
    "type": "ADD_BUSINESS_UNIT_LOADING",
  },
  Object {
    "payload": true,
    "type": "ADD_BUSINESS_UNIT_LOADING",
  },
  Object {
    "payload": true,
    "type": "ADD_BUSINESS_UNIT_LOADING",
  },
  Object {
    "payload": true,
    "type": "ADD_BUSINESS_UNIT_LOADING",
  },
  Object {
    "payload": Array [
      "ALL",
    ],
    "type": "ADD_BUSINESS_UNIT_SUCCESS",
  },
  Object {
    "payload": Array [
      "ALL",
    ],
    "type": "SET_BUSINESS_UNIT_LOCAL",
  },
  Object {
    "payload": false,
    "type": "ADD_BUSINESS_UNIT_LOADING",
  },
  Object {
    "payload": Array [
      "PROFESSIONAL",
      "CONSUMER",
    ],
    "type": "ADD_BUSINESS_UNIT_SUCCESS",
  },
  Object {
    "payload": Array [
      "CONSUMER",
      "PROFESSIONAL",
    ],
    "type": "SET_BUSINESS_UNIT_LOCAL",
  },
  Object {
    "payload": false,
    "type": "ADD_BUSINESS_UNIT_LOADING",
  },
  Object {
    "payload": Array [
      "CONSUMER",
    ],
    "type": "ADD_BUSINESS_UNIT_SUCCESS",
  },
  Object {
    "payload": Array [
      "CONSUMER",
      "PROFESSIONAL",
    ],
    "type": "SET_BUSINESS_UNIT_LOCAL",
  },
  Object {
    "payload": false,
    "type": "ADD_BUSINESS_UNIT_LOADING",
  },
  Object {
    "payload": Array [
      "CONSUMER",
      "PROFESSIONAL",
    ],
    "type": "ADD_BUSINESS_UNIT_SUCCESS",
  },
  Object {
    "payload": Array [
      "PROFESSIONAL",
    ],
    "type": "SET_BUSINESS_UNIT_LOCAL",
  },
  Object {
    "payload": false,
    "type": "ADD_BUSINESS_UNIT_LOADING",
  },
  Object {
    "payload": Array [
      "PROFESSIONAL",
    ],
    "type": "ADD_BUSINESS_UNIT_SUCCESS",
  },
  Object {
    "payload": Array [
      "PROFESSIONAL",
    ],
    "type": "SET_BUSINESS_UNIT_LOCAL",
  },
  Object {
    "payload": false,
    "type": "ADD_BUSINESS_UNIT_LOADING",
  },
]
`;

exports[`async actions setBusinessService  5`] = `
Array [
  Object {
    "payload": true,
    "type": "ADD_BUSINESS_UNIT_LOADING",
  },
  Object {
    "payload": true,
    "type": "ADD_BUSINESS_UNIT_LOADING",
  },
  Object {
    "payload": true,
    "type": "ADD_BUSINESS_UNIT_LOADING",
  },
  Object {
    "payload": true,
    "type": "ADD_BUSINESS_UNIT_LOADING",
  },
  Object {
    "payload": true,
    "type": "ADD_BUSINESS_UNIT_LOADING",
  },
  Object {
    "payload": Array [
      "ALL",
    ],
    "type": "ADD_BUSINESS_UNIT_SUCCESS",
  },
  Object {
    "payload": Array [
      "ALL",
    ],
    "type": "SET_BUSINESS_UNIT_LOCAL",
  },
  Object {
    "payload": false,
    "type": "ADD_BUSINESS_UNIT_LOADING",
  },
  Object {
    "payload": Array [
      "PROFESSIONAL",
      "CONSUMER",
    ],
    "type": "ADD_BUSINESS_UNIT_SUCCESS",
  },
  Object {
    "payload": Array [
      "CONSUMER",
      "PROFESSIONAL",
    ],
    "type": "SET_BUSINESS_UNIT_LOCAL",
  },
  Object {
    "payload": false,
    "type": "ADD_BUSINESS_UNIT_LOADING",
  },
  Object {
    "payload": Array [
      "CONSUMER",
    ],
    "type": "ADD_BUSINESS_UNIT_SUCCESS",
  },
  Object {
    "payload": Array [
      "CONSUMER",
      "PROFESSIONAL",
    ],
    "type": "SET_BUSINESS_UNIT_LOCAL",
  },
  Object {
    "payload": false,
    "type": "ADD_BUSINESS_UNIT_LOADING",
  },
  Object {
    "payload": Array [
      "CONSUMER",
      "PROFESSIONAL",
    ],
    "type": "ADD_BUSINESS_UNIT_SUCCESS",
  },
  Object {
    "payload": Array [
      "PROFESSIONAL",
    ],
    "type": "SET_BUSINESS_UNIT_LOCAL",
  },
  Object {
    "payload": false,
    "type": "ADD_BUSINESS_UNIT_LOADING",
  },
  Object {
    "payload": Array [
      "PROFESSIONAL",
    ],
    "type": "ADD_BUSINESS_UNIT_SUCCESS",
  },
  Object {
    "payload": Array [
      "PROFESSIONAL",
    ],
    "type": "SET_BUSINESS_UNIT_LOCAL",
  },
  Object {
    "payload": false,
    "type": "ADD_BUSINESS_UNIT_LOADING",
  },
]
`;

exports[`async actions setBusinessService Failed 1`] = `
Array [
  Object {
    "payload": true,
    "type": "ADD_BUSINESS_UNIT_LOADING",
  },
  Object {
    "payload": false,
    "type": "ADD_BUSINESS_UNIT_LOADING",
  },
  Object {
    "payload": Array [],
    "type": "ADD_BUSINESS_UNIT_FAILED",
  },
]
`;
