// Jest Snapshot v1, https://goo.gl/fbAQLP

exports[`async actions Add New Filter Layout 1`] = `
Array [
  Object {
    "payload": Object {
      "data": Object {
        "default": false,
        "fitlers": Object {},
        "id": 1,
        "name": "My FilterView 1",
      },
      "tableName": "Transport",
    },
    "type": "PROFILE_CREATE_FILTER_LAYOUT",
  },
]
`;

exports[`async actions Get Filter Layout Failed 1`] = `
Array [
  Object {
    "payload": true,
    "type": "PROFILE_LOADING",
  },
  Object {
    "payload": false,
    "type": "PROFILE_LOADING",
  },
  Object {
    "payload": Object {
      "status": 500,
    },
    "type": "PROFILE_FETCH_FAILED",
  },
  Object {
    "payload": Array [],
    "type": "ADD_BUSINESS_UNIT_FAILED",
  },
  Object {
    "payload": Array [],
    "type": "GET_FAVS_FAILED",
  },
  Object {
    "payload": Array [],
    "type": "FAV_CUSO_FAILED",
  },
]
`;

exports[`async actions Get Filter Views Success - CUSO 1`] = `
Array [
  Object {
    "payload": true,
    "type": "PROFILE_LOADING",
  },
  Object {
    "payload": false,
    "type": "PROFILE_LOADING",
  },
  Object {
    "payload": Object {
      "favoriteSites": Array [],
      "favouriteCustomerSalesOffice": Array [
        Object {
          "customerName": "Amazon",
          "distributionChannel": "80",
          "salesOrg": "2810",
          "selectionType": "CUST",
        },
      ],
      "layouts": Object {},
    },
    "type": "PROFILE_FETCH_SUCCESS",
  },
  Object {
    "payload": Array [
      Object {
        "customerName": "Amazon",
        "distributionChannel": "80",
        "salesOrg": "2810",
        "selectionType": "CUST",
      },
    ],
    "type": "GET_FAV_CUSO",
  },
  Object {
    "payload": Array [],
    "type": "GET_FAVS_SUCCESS",
  },
  Object {
    "payload": Array [],
    "type": "ADD_BUSINESS_UNIT_SUCCESS",
  },
  Object {
    "payload": Object {
      "cuso": Object {
        "CUST": Array [
          Object {
            "customerName": "Amazon",
            "distributionChannel": "80",
            "salesOrg": "2810",
            "selectionType": "CUST",
          },
        ],
        "SALES_OFFICE": Array [],
      },
      "locations": Array [],
    },
    "type": "SET_ONLOAD_SELECTIONS",
  },
]
`;

exports[`async actions Get Filter Views Success 1`] = `
Array [
  Object {
    "payload": true,
    "type": "PROFILE_LOADING",
  },
  Object {
    "payload": false,
    "type": "PROFILE_LOADING",
  },
  Object {
    "payload": Object {
      "favoriteSites": Array [],
      "favouriteCustomerSalesOffice": Array [],
      "layouts": Object {},
    },
    "type": "PROFILE_FETCH_SUCCESS",
  },
  Object {
    "payload": Array [],
    "type": "GET_FAV_CUSO",
  },
  Object {
    "payload": Array [],
    "type": "GET_FAVS_SUCCESS",
  },
  Object {
    "payload": Array [],
    "type": "ADD_BUSINESS_UNIT_SUCCESS",
  },
  Object {
    "payload": Object {
      "cuso": Object {
        "CUST": Array [],
        "SALES_OFFICE": Array [],
      },
      "locations": Array [],
    },
    "type": "SET_ONLOAD_SELECTIONS",
  },
]
`;

exports[`async actions SetNew/SetFav Services Data Failed 1`] = `
Array [
  Object {
    "payload": true,
    "type": "PROFILE_LOADING",
  },
  Object {
    "payload": true,
    "type": "PROFILE_LOADING",
  },
  Object {
    "payload": false,
    "type": "PROFILE_LOADING",
  },
  Object {
    "payload": Object {
      "data": null,
      "status": "failed",
    },
    "type": "PROFILE_SAVE_FAILED",
  },
  Object {
    "payload": false,
    "type": "PROFILE_LOADING",
  },
  Object {
    "payload": Object {
      "data": null,
      "status": "failed",
    },
    "type": "PROFILE_MARKFAV_FAILED",
  },
]
`;

exports[`async actions SetNew/SetFav Services Data Failed 2`] = `
Array [
  Object {
    "payload": true,
    "type": "PROFILE_LOADING",
  },
  Object {
    "payload": true,
    "type": "PROFILE_LOADING",
  },
  Object {
    "payload": false,
    "type": "PROFILE_LOADING",
  },
  Object {
    "payload": Object {
      "data": null,
      "status": "failed",
    },
    "type": "PROFILE_SAVE_FAILED",
  },
  Object {
    "payload": false,
    "type": "PROFILE_LOADING",
  },
  Object {
    "payload": Object {
      "data": null,
      "status": "failed",
    },
    "type": "PROFILE_MARKFAV_FAILED",
  },
]
`;

exports[`async actions SetNew/SetFav Services Data Success 1`] = `
Array [
  Object {
    "payload": true,
    "type": "PROFILE_LOADING",
  },
  Object {
    "payload": true,
    "type": "PROFILE_LOADING",
  },
  Object {
    "payload": Object {
      "currentView": Object {},
      "data": Object {
        "filterLayouts": Object {
          "NETWORK": Object {
            "tableName": "network",
            "views": Array [],
          },
        },
      },
      "status": "done",
      "tableName": undefined,
    },
    "type": "PROFILE_SAVE_SUCCESS",
  },
  Object {
    "payload": false,
    "type": "PROFILE_LOADING",
  },
  Object {
    "payload": Object {
      "data": Object {
        "filterLayouts": Object {
          "NETWORK": Object {
            "tableName": "network",
            "views": Array [],
          },
        },
      },
      "status": "done",
    },
    "type": "PROFILE_MARKFAV_SUCCESS",
  },
  Object {
    "payload": false,
    "type": "PROFILE_LOADING",
  },
]
`;

exports[`async actions SetNew/SetFav Services Data Success 2`] = `
Array [
  Object {
    "payload": true,
    "type": "PROFILE_LOADING",
  },
  Object {
    "payload": true,
    "type": "PROFILE_LOADING",
  },
  Object {
    "payload": Object {
      "currentView": Object {},
      "data": Object {
        "filterLayouts": Object {
          "NETWORK": Object {
            "tableName": "network",
            "views": Array [],
          },
        },
      },
      "status": "done",
      "tableName": undefined,
    },
    "type": "PROFILE_SAVE_SUCCESS",
  },
  Object {
    "payload": false,
    "type": "PROFILE_LOADING",
  },
  Object {
    "payload": Object {
      "data": Object {
        "filterLayouts": Object {
          "NETWORK": Object {
            "tableName": "network",
            "views": Array [],
          },
        },
      },
      "status": "done",
    },
    "type": "PROFILE_MARKFAV_SUCCESS",
  },
  Object {
    "payload": false,
    "type": "PROFILE_LOADING",
  },
]
`;

exports[`async actions set Current View 1`] = `
Array [
  Object {
    "payload": Object {
      "tableName": undefined,
      "variables": Object {
        "viewObject": Object {
          "default": false,
          "fitlers": Object {},
          "id": 1,
          "name": "My FilterView 1",
        },
      },
    },
    "type": "PROFILE_SET_CURRENT_VIEW",
  },
]
`;

exports[`async actions set First Load 1`] = `
Array [
  Object {
    "payload": false,
    "type": "SET_FIRST_LOAD",
  },
]
`;
