// Jest Snapshot v1, https://goo.gl/fbAQLP

exports[`async actions Get Customer Data Failed 1`] = `
Array [
  Object {
    "payload": true,
    "type": "LOCATIONS_LOADING",
  },
  Object {
    "payload": false,
    "type": "LOCATIONS_LOADING",
  },
  Object {
    "payload": Array [],
    "type": "CUSTOMER_FETCH_FAILED",
  },
]
`;

exports[`async actions Get Customer Data Success 1`] = `
Array [
  Object {
    "payload": true,
    "type": "LOCATIONS_LOADING",
  },
  Object {
    "payload": false,
    "type": "LOCATIONS_LOADING",
  },
  Object {
    "payload": Array [
      Object {
        "customerName": "WalmartCanada",
        "salesOrgList": Array [
          Object {
            "distributionChannel": "80",
            "salesOrg": "2810",
          },
          Object {
            "distributionChannel": "90",
            "salesOrg": "2810",
          },
          Object {
            "distributionChannel": "80",
            "salesOrg": "2820",
          },
        ],
      },
    ],
    "type": "CUSTOMER_FETCH_SUCCESS",
  },
]
`;

exports[`async actions Get Customer Data Success 2`] = `
Array [
  Object {
    "payload": true,
    "type": "PEFRORMANCE_LOADING",
  },
  Object {
    "payload": Array [
      Object {
        "salesGroupList": Array [
          "Z01",
          "Z02",
          "Z03",
        ],
        "salesOffice": "CS01",
        "salesOfficeName": "pharma",
        "salesOrgList": Array [
          Object {
            "distributionChannel": "80",
            "salesOrg": "2810",
          },
          Object {
            "distributionChannel": "90",
            "salesOrg": "2810",
          },
          Object {
            "distributionChannel": "80",
            "salesOrg": "2820",
          },
        ],
      },
      Object {
        "salesGroupList": Array [
          "Z01",
          "Z02",
          "Z03",
        ],
        "salesOffice": "CS02",
        "salesOfficeName": "Retail",
        "salesOrgList": Array [
          Object {
            "distributionChannel": "90",
            "salesOrg": "2810",
          },
          Object {
            "distributionChannel": "80",
            "salesOrg": "2820",
          },
        ],
      },
    ],
    "type": "SALESOFC_FETCH_SUCCESS",
  },
  Object {
    "payload": false,
    "type": "PEFRORMANCE_LOADING",
  },
]
`;

exports[`async actions Get Locations Data Failed 1`] = `
Array [
  Object {
    "payload": true,
    "type": "LOCATIONS_LOADING",
  },
  Object {
    "payload": false,
    "type": "LOCATIONS_LOADING",
  },
  Object {
    "payload": Object {
      "json": [Function],
      "status": 500,
    },
    "type": "LOCATION_FETCH_FAILED",
  },
]
`;

exports[`async actions Get Locations Data Success 1`] = `
Array [
  Object {
    "payload": true,
    "type": "LOCATIONS_LOADING",
  },
  Object {
    "payload": Object {
      "data": Object {
        "dc": Array [],
        "mill": Array [],
      },
    },
    "type": "LOCATION_FETCH_SUCCESS",
  },
  Object {
    "payload": false,
    "type": "LOCATIONS_LOADING",
  },
]
`;

exports[`async actions Get Performance Data Failed 1`] = `
Array [
  Object {
    "payload": true,
    "type": "PEFRORMANCE_LOADING",
  },
  Object {
    "payload": false,
    "type": "PEFRORMANCE_LOADING",
  },
  Object {
    "payload": Array [],
    "type": "PERFORMANCE_FETCH_FAILED",
  },
]
`;

exports[`async actions Get Performance Data Success 1`] = `
Array [
  Object {
    "payload": true,
    "type": "PEFRORMANCE_LOADING",
  },
  Object {
    "payload": Array [],
    "type": "PERFORMANCE_FETCH_SUCCESS",
  },
  Object {
    "payload": false,
    "type": "PEFRORMANCE_LOADING",
  },
]
`;

exports[`async actions Get Sales Ofc Data Failed 1`] = `
Array [
  Object {
    "payload": true,
    "type": "PEFRORMANCE_LOADING",
  },
  Object {
    "payload": false,
    "type": "PEFRORMANCE_LOADING",
  },
  Object {
    "payload": Array [],
    "type": "SALESOFC_FETCH_FAILED",
  },
]
`;
